{
  "project_info": {
    "project_number": "723231974823",
    "project_id": "wechat-otakkanan",
    "storage_bucket": "wechat-otakkanan.appspot.com"
  },
  "client": [
    {
      "client_info": {
        "mobilesdk_app_id": "1:723231974823:android:b3d3361e93f1e7cd4f4282",
        "android_client_info": {
          "package_name": "com.example.we_chat"
        }
      },
      "oauth_client": [
        {
          "client_id": "723231974823-9kfo725k4lpkp0jetsgeeojbmps094v0.apps.googleusercontent.com",
          "client_type": 1,
          "android_info": {
            "package_name": "com.example.we_chat",
            "certificate_hash": "f2bb4faddaef62b5831cd5977982c93c2f4c393f"
          }
        },
        {
          "client_id": "723231974823-2lluq7f2h0t5fkldvbcj4gikb4q49rv6.apps.googleusercontent.com",
          "client_type": 3
        }
      ],
      "api_key": [
        {
          "current_key": "AIzaSyCtGKSu9AR-PmK2CTj9W5CoUCMz3SFOZX0"
        }
      ],
      "services": {
        "appinvite_service": {
          "other_platform_oauth_client": [
            {
              "client_id": "723231974823-2lluq7f2h0t5fkldvbcj4gikb4q49rv6.apps.googleusercontent.com",
              "client_type": 3
            }
          ]
        }
      }
    }
  ],
  "configuration_version": "1"
}